…
# And plot the SA2 and the points

mapview(melb_th_sa2) + mapview(melb_town_hall, col.regions = "red")
```

<img src="man/figures/README-example-2.png" width="100%" />

Other years and geographies (and some limited descriptions) are
available with `get_layers()`:

``` r
# See available year-geography layers
layers <- get_layers()
layers
#> # A tibble: 62 × 6
#>       id  year geo   name                description                       url  
#>    <int> <dbl> <chr> <chr>               <chr>                             <chr>
#>  1     0  2016 add   ASGS_2016_ADD_GEN   "Australian Drainage Divisions (… http…
#>  2     1  2016 aus   ASGS_2016_AUS_GEN   ""                                http…
#>  3     2  2016 ced   ASGS_2016_CED_GEN   "Commonwealth Electoral Division… http…
#>  4     3  2016 dzn   ASGS_2016_DZN_GEN   ""                                http…
#>  5     4  2016 gccsa ASGS_2016_GCCSA_GEN "Greater Capital City Statistica… http…
#>  6     5  2016 iare  ASGS_2016_IARE_GEN  "Indigenous Areas are medium siz… http…
#>  7     6  2016 iloc  ASGS_2016_ILOC_GEN  "Indigenous Locations (ILOCs) ar… http…
#>  8     7  2016 ireg  ASGS_2016_IREG_GEN  "Indigenous Regions (IREGs) are … http…
#>  9     8  2016 lga   ASGS_2016_LGA_GEN   "Local Government Areas (LGAs) a… http…
#> 10     9  2016 mb    ASGS_2016_MB_GEN    "Mesh Blocks (MB) are the smalle… http…
#> # ℹ 52 more rows
```
